…
Загрузим данные из лога:

``` r
dns_log <- read_delim("data/dns.log", 
                        delim = "\t",
                        col_names = FALSE,
                        col_types = cols(.default = col_character()),
                        trim_ws = TRUE,
                        na = c("", "NA", "-"))
dns_log
```

    # A tibble: 427,935 × 23
       X1    X2    X3    X4    X5    X6    X7    X8    X9    X10   X11   X12   X13  
       <chr> <chr> <chr> <chr> <chr> <chr> <chr> <chr> <chr> <chr> <chr> <chr> <chr>
     1 1331… CWGt… 192.… 45658 192.… 137   udp   33008 "*\\… 1     C_IN… 33    SRV  
     2 1331… C36a… 192.… 137   192.… 137   udp   57402 "HPE… 1     C_IN… 32    NB   
     3 1331… C36a… 192.… 137   192.… 137   udp   57402 "HPE… 1     C_IN… 32    NB   
     4 1331… C36a… 192.… 137   192.… 137   udp   57402 "HPE… 1     C_IN… 32    NB   
     5 1331… C36a… 192.… 137   192.… 137   udp   57398 "WPA… 1     C_IN… 32    NB   
     6 1331… C36a… 192.… 137   192.… 137   udp   57398 "WPA… 1     C_IN… 32    NB   
     7 1331… C36a… 192.… 137   192.… 137   udp   57398 "WPA… 1     C_IN… 32    NB   
     8 1331… ClEZ… 192.… 137   192.… 137   udp   62187 "EWR… 1     C_IN… 32    NB   
     9 1331… ClEZ… 192.… 137   192.… 137   udp   62187 "EWR… 1     C_IN… 32    NB   
    10 1331… ClEZ… 192.… 137   192.… 137   udp   62187 "EWR… 1     C_IN… 32    NB   
    # ℹ 427,925 more rows
    # ℹ 10 more variables: X14 <chr>, X15 <chr>, X16 <chr>, X17 <chr>, X18 <chr>,
    #   X19 <chr>, X20 <chr>, X21 <chr>, X22 <chr>, X23 <chr>
…
Еще раз загрузим данные из файла с логом, но на этот раз с названиями
столбцов:

``` r
dns_log <- read_delim("data/dns.log",
                        delim = "\t",
                        col_names = column_names,
                        col_types = cols(.default = col_character()),
                        trim_ws = TRUE,
                        na = c("", "NA", "-"))

dns_log
```

    # A tibble: 427,935 × 23
       timestamp   uid   src_ip src_port dst_ip dst_port proto trans_id query qclass
       <chr>       <chr> <chr>  <chr>    <chr>  <chr>    <chr> <chr>    <chr> <chr> 
     1 1331901005… CWGt… 192.1… 45658    192.1… 137      udp   33008    "*\\… 1     
     2 1331901015… C36a… 192.1… 137      192.1… 137      udp   57402    "HPE… 1     
     3 1331901015… C36a… 192.1… 137      192.1… 137      udp   57402    "HPE… 1     
     4 1331901016… C36a… 192.1… 137      192.1… 137      udp   57402    "HPE… 1     
     5 1331901005… C36a… 192.1… 137      192.1… 137      udp   57398    "WPA… 1     
     6 1331901006… C36a… 192.1… 137      192.1… 137      udp   57398    "WPA… 1     
     7 1331901007… C36a… 192.1… 137      192.1… 137      udp   57398    "WPA… 1     
     8 1331901006… ClEZ… 192.1… 137      192.1… 137      udp   62187    "EWR… 1     
     9 1331901007… ClEZ… 192.1… 137      192.1… 137      udp   62187    "EWR… 1     
    10 1331901007… ClEZ… 192.1… 137      192.1… 137      udp   62187    "EWR… 1     
    # ℹ 427,925 more rows
    # ℹ 13 more variables: qclass_name <chr>, qtype <chr>, qtype_name <chr>,
    #   rcode <chr>, rcode_name <chr>, AA <chr>, TC <chr>, RD <chr>, RA <chr>,
    #   Z <chr>, answers <chr>, TTLs <chr>, rejected <chr>
…
dns_log <- dns_log %>%
    mutate(
        timestamp = as.POSIXct(timestamp, origin = "1970-01-01"),

        AA = AA == "T",
        TC = TC == "T",
        RD = RD == "T",
        RA = RA == "T",
        rejected = rejected == "T"
    )

dns_log
```

    # A tibble: 427,935 × 23
       timestamp           uid        src_ip src_port dst_ip dst_port proto trans_id
       <dttm>              <chr>      <chr>     <int> <chr>     <int> <chr>    <int>
     1 2012-03-16 15:30:05 CWGtK431H… 192.1…    45658 192.1…      137 udp      33008
     2 2012-03-16 15:30:15 C36a282Jl… 192.1…      137 192.1…      137 udp      57402
     3 2012-03-16 15:30:15 C36a282Jl… 192.1…      137 192.1…      137 udp      57402
     4 2012-03-16 15:30:16 C36a282Jl… 192.1…      137 192.1…      137 udp      57402
     5 2012-03-16 15:30:05 C36a282Jl… 192.1…      137 192.1…      137 udp      57398
     6 2012-03-16 15:30:06 C36a282Jl… 192.1…      137 192.1…      137 udp      57398
     7 2012-03-16 15:30:07 C36a282Jl… 192.1…      137 192.1…      137 udp      57398
     8 2012-03-16 15:30:06 ClEZCt3GL… 192.1…      137 192.1…      137 udp      62187
     9 2012-03-16 15:30:07 ClEZCt3GL… 192.1…      137 192.1…      137 udp      62187
    10 2012-03-16 15:30:07 ClEZCt3GL… 192.1…      137 192.1…      137 udp      62187
    # ℹ 427,925 more rows
    # ℹ 15 more variables: query <chr>, qclass <int>, qclass_name <chr>,
    #   qtype <int>, qtype_name <chr>, rcode <int>, rcode_name <chr>, AA <lgl>,
    #   TC <lgl>, RD <lgl>, RA <lgl>, Z <int>, answers <chr>, TTLs <chr>,
    #   rejected <lgl>
…
