…
### Анализ точек доступа

#### 1. Определить небезопасные точки доступа (без шифрования – OPN)

``` r
wifi_data %>%
    filter(privacy == "OPN")
```

    # A tibble: 42 × 15
       bssid    first_time_seen     last_time_seen      channel speed privacy cipher
       <chr>    <dttm>              <dttm>                <int> <int> <fct>   <fct> 
     1 E8:28:C… 2023-07-28 09:13:03 2023-07-28 11:55:38       6   130 OPN     <NA>  
     2 E8:28:C… 2023-07-28 09:13:06 2023-07-28 11:55:12       6   130 OPN     <NA>  
     3 E8:28:C… 2023-07-28 09:13:06 2023-07-28 11:55:11       6   130 OPN     <NA>  
     4 E8:28:C… 2023-07-28 09:13:06 2023-07-28 11:55:10       6    -1 OPN     <NA>  
     5 00:25:0… 2023-07-28 09:13:06 2023-07-28 11:56:21      44    -1 OPN     <NA>  
     6 E8:28:C… 2023-07-28 09:13:09 2023-07-28 11:56:05      11   130 OPN     <NA>  
     7 E8:28:C… 2023-07-28 09:13:13 2023-07-28 10:27:06       6   130 OPN     <NA>  
     8 E8:28:C… 2023-07-28 09:13:13 2023-07-28 10:39:43       6   130 OPN     <NA>  
     9 E8:28:C… 2023-07-28 09:13:17 2023-07-28 11:52:32       1   130 OPN     <NA>  
    10 E8:28:C… 2023-07-28 09:13:50 2023-07-28 11:43:39      11   130 OPN     <NA>  
    # ℹ 32 more rows
    # ℹ 8 more variables: authentication <fct>, power <int>, beacons <int>,
    #   iv <int>, lan_ip <chr>, id_length <int>, essid <chr>, key <lgl>
…
    } else {
        assign(oui, "Unknown", envir = manufacturer_cache)
        return("Unknown")
    }
}

wifi_data <- wifi_data %>%
mutate(
    manufacturer = sapply(bssid, get_manufacturer)
)

wifi_data %>% select(bssid, manufacturer)
```

    # A tibble: 167 × 2
       bssid             manufacturer           
       <chr>             <chr>                  
     1 BE:F1:71:D5:17:8B Unknown                
     2 6E:C7:EC:16:DA:1A Unknown                
     3 9A:75:A8:B9:04:1E Unknown                
     4 4A:EC:1E:DB:BF:95 Unknown                
     5 D2:6D:52:61:51:5D Unknown                
     6 E8:28:C1:DC:B2:52 Eltex Enterprise Ltd.  
     7 BE:F1:71:D6:10:D7 Unknown                
     8 0A:C5:E1:DB:17:7B Unknown                
     9 38:1A:52:0D:84:D7 Seiko Epson Corporation
    10 BE:F1:71:D5:0E:53 Unknown                
    # ℹ 157 more rows
…
    return(wifi_sessions)
}

merge_sessions(wifi_data)
```

    # A tibble: 167 × 20
       bssid    first_time_seen     last_time_seen      channel speed privacy cipher
       <chr>    <dttm>              <dttm>                <int> <int> <fct>   <fct> 
     1 00:25:0… 2023-07-28 09:13:06 2023-07-28 11:56:21      44    -1 OPN     <NA>  
     2 E8:28:C… 2023-07-28 09:13:09 2023-07-28 11:56:05      11   130 OPN     <NA>  
     3 E8:28:C… 2023-07-28 09:13:03 2023-07-28 11:55:38       6   130 OPN     <NA>  
     4 08:3A:2… 2023-07-28 09:13:27 2023-07-28 11:55:53      14    -1 WPA     <NA>  
     5 6E:C7:E… 2023-07-28 09:13:03 2023-07-28 11:55:12       1   130 WPA2    CCMP  
     6 E8:28:C… 2023-07-28 09:13:06 2023-07-28 11:55:12       6   130 OPN     <NA>  
     7 48:5B:3… 2023-07-28 09:13:06 2023-07-28 11:55:11       1   270 WPA2    CCMP  
     8 E8:28:C… 2023-07-28 09:13:06 2023-07-28 11:55:11       6   130 OPN     <NA>  
     9 E8:28:C… 2023-07-28 09:13:06 2023-07-28 11:55:10       6    -1 OPN     <NA>  
    10 8E:55:4… 2023-07-28 09:13:06 2023-07-28 11:55:09       6    65 WPA2    CCMP  
    # ℹ 157 more rows
    # ℹ 13 more variables: authentication <fct>, power <int>, beacons <int>,
    #   iv <int>, lan_ip <chr>, id_length <int>, essid <chr>, key <lgl>,
    #   manufacturer <chr>, session_id <dbl>, session_duration_minutes <dbl>,
    #   session_duration_hours <dbl>, session_duration_days <dbl>
…
    mutate(
        first_time_seen = as.POSIXct(first_time_seen),
        last_time_seen = as.POSIXct(last_time_seen),
        duration_minutes = as.numeric(difftime(last_time_seen, first_time_seen, units = "mins")),
        duration_minutes = ifelse(duration_minutes <= 0, 0.1, duration_minutes),
        beacon_rate_per_min = beacons / duration_minutes,
        beacon_rate_per_sec = beacon_rate_per_min / 60,
        beacon_rate_per_hour = beacons / (duration_minutes / 60)
    ) %>%

    arrange(desc(beacon_rate_per_min)) 
```

    # A tibble: 102 × 20
       bssid    first_time_seen     last_time_seen      channel speed privacy cipher
       <chr>    <dttm>              <dttm>                <int> <int> <fct>   <fct> 
     1 F2:30:A… 2023-07-28 10:27:02 2023-07-28 10:27:09       1   130 WPA2    CCMP  
     2 B2:CF:C… 2023-07-28 10:40:54 2023-07-28 10:40:59       6   180 WPA2    CCMP  
     3 3A:DA:0… 2023-07-28 10:27:01 2023-07-28 10:27:10       6   130 WPA3 W… CCMP  
     4 02:BC:1… 2023-07-28 09:24:46 2023-07-28 09:24:48      11   130 OPN     <NA>  
     5 00:3E:1… 2023-07-28 10:34:03 2023-07-28 10:34:05      11   130 OPN     <NA>  
     6 76:C5:A… 2023-07-28 11:16:36 2023-07-28 11:16:38       6   130 WPA3 W… CCMP  
     7 D2:25:9… 2023-07-28 09:45:29 2023-07-28 09:45:42      12   180 WPA2    CCMP  
     8 BE:F1:7… 2023-07-28 09:13:03 2023-07-28 11:50:44      11   195 WPA2    CCMP  
     9 76:E4:E… 2023-07-28 09:18:50 2023-07-28 09:18:50      13   180 WPA2    CCMP  
    10 C2:B5:D… 2023-07-28 09:32:42 2023-07-28 09:32:42       6   130 WPA2    CCMP  
    # ℹ 92 more rows
    # ℹ 13 more variables: authentication <fct>, power <int>, beacons <int>,
    #   iv <int>, lan_ip <chr>, id_length <int>, essid <chr>, key <lgl>,
    #   manufacturer <chr>, duration_minutes <dbl>, beacon_rate_per_min <dbl>,
    #   beacon_rate_per_sec <dbl>, beacon_rate_per_hour <dbl>
…
Для этого воспользуемся функцией, написанной нами для поиска
производителей точек доступа:

``` r
client_conn_data <- client_conn_data %>%
    filter(!is.na(bssid) & bssid != "(not associated)") %>%
    mutate(
        manufacturer = sapply(bssid, get_manufacturer)
    )

client_conn_data %>% select(bssid, manufacturer)
```

    # A tibble: 186 × 2
       bssid             manufacturer                 
       <chr>             <chr>                        
     1 BE:F1:71:D5:17:8B Unknown                      
     2 BE:F1:71:D6:10:D7 Unknown                      
     3 BE:F1:71:D5:17:8B Unknown                      
     4 1E:93:E3:1B:3C:F4 Unknown                      
     5 E8:28:C1:DC:FF:F2 Eltex Enterprise Ltd.        
     6 00:25:00:FF:94:73 Apple, Inc.                  
     7 00:26:99:F2:7A:E2 Cisco Systems, Inc           
     8 0C:80:63:A9:6E:EE TP-LINK TECHNOLOGIES CO.,LTD.
     9 E8:28:C1:DD:04:52 Eltex Enterprise Ltd.        
    10 0A:C5:E1:DB:17:7B Unknown                      
    # ℹ 176 more rows

#### 2. Обнаружить устройства, которые НЕ рандомизируют свой MAC адрес

``` r
rand_prefixes <- c("A", "a", "E", "e", "2", "6")

client_conn_data %>%
    filter(
        !substr(station_mac, 2, 2) %in% rand_prefixes
        )
```

    # A tibble: 59 × 8
       station_mac       first_time_seen     last_time_seen      power packets bssid
       <chr>             <dttm>              <dttm>              <int>   <int> <chr>
     1 5C:3A:45:9E:1A:7B 2023-07-28 09:13:03 2023-07-28 11:51:54   -39     432 BE:F…
     2 C0:E4:34:D8:E7:E5 2023-07-28 09:13:03 2023-07-28 11:53:16   -61     958 BE:F…
     3 68:54:5A:40:35:9E 2023-07-28 09:13:06 2023-07-28 11:50:50   -31     163 1E:9…
     4 74:4C:A1:70:CE:F7 2023-07-28 09:13:06 2023-07-28 09:20:01   -71       3 E8:2…
     5 4C:44:5B:14:76:E3 2023-07-28 09:13:09 2023-07-28 09:47:44    -1      71 E8:2…
     6 A0:E7:0B:AE:D5:44 2023-07-28 09:13:09 2023-07-28 11:34:42   -37     125 0A:C…
     7 48:68:4A:93:DF:B4 2023-07-28 09:13:13 2023-07-28 11:50:22   -48     122 1E:9…
     8 28:7F:CF:23:25:53 2023-07-28 09:13:14 2023-07-28 11:51:50   -37     156 9A:7…
     9 8C:55:4A:DE:F2:38 2023-07-28 09:13:17 2023-07-28 11:56:16   -65     117 8A:A…
    10 88:D8:2E:4F:9B:1A 2023-07-28 09:13:19 2023-07-28 11:51:24   -29     240 4A:E…
    # ℹ 49 more rows
    # ℹ 2 more variables: probed_essids <chr>, manufacturer <chr>
…
cl
```

    # A tibble: 120 × 9
       station_mac  cluster first_appearance    last_appearance     duration_minutes
       <chr>        <chr>   <dttm>              <dttm>                         <dbl>
     1 00:F4:8D:F7… Hornet… 2023-07-28 10:45:04 2023-07-28 11:43:26           58.4  
     2 00:F4:8D:F7… Redmi … 2023-07-28 10:45:04 2023-07-28 11:43:26           58.4  
     3 02:69:A5:29… Galaxy… 2023-07-28 10:52:35 2023-07-28 11:24:51           32.3  
     4 04:8C:9A:0B… MIREA_… 2023-07-28 10:27:47 2023-07-28 11:55:51           88.1  
     5 06:15:2E:12… MIREA_… 2023-07-28 10:27:47 2023-07-28 10:30:41            2.9  
     6 06:15:2E:12… MT_FREE 2023-07-28 10:27:47 2023-07-28 10:30:41            2.9  
     7 06:F2:A9:C1… MIREA_… 2023-07-28 09:31:40 2023-07-28 11:50:58          139.   
     8 0A:AB:49:39… MIREA_… 2023-07-28 10:32:39 2023-07-28 11:39:44           67.1  
     9 0A:C2:C3:08… MIREA_… 2023-07-28 10:14:39 2023-07-28 10:14:47            0.133
    10 0C:E4:41:E8… MIREA_… 2023-07-28 09:32:07 2023-07-28 10:21:40           49.6  
    # ℹ 110 more rows
    # ℹ 4 more variables: session_count <int>, avg_power <dbl>,
    #   total_packets <int>, packets_per_minute <dbl>
…
