…
### 6. Найти всех персонажей ниже 170

Воспользуемся функциями `filter` и `arrange`:

``` r
starwars %>% 
    filter(height < 170) %>% 
    arrange(height)
```

    # A tibble: 22 × 14
       name     height  mass hair_color skin_color eye_color birth_year sex   gender
       <chr>     <int> <dbl> <chr>      <chr>      <chr>          <dbl> <chr> <chr> 
     1 Yoda         66    17 white      green      brown            896 male  mascu…
     2 Ratts T…     79    15 none       grey, blue unknown           NA male  mascu…
     3 Wicket …     88    20 brown      brown      brown              8 male  mascu…
     4 Dud Bolt     94    45 none       blue, grey yellow            NA male  mascu…
     5 R2-D2        96    32 <NA>       white, bl… red               33 none  mascu…
     6 R4-P17       96    NA none       silver, r… red, blue         NA none  femin…
     7 R5-D4        97    32 <NA>       white, red red               NA none  mascu…
     8 Sebulba     112    40 none       grey, red  orange            NA male  mascu…
     9 Gasgano     122    NA none       white, bl… black             NA male  mascu…
    10 Watto       137    NA black      blue, grey yellow            NA male  mascu…
    # ℹ 12 more rows
    # ℹ 5 more variables: homeworld <chr>, species <chr>, films <list>,
    #   vehicles <list>, starships <list>
…
Сохраним в поле `height_m` значение роста в метрах, далее для
модификации исходного датафрейма воспользуемся функцией `mutate`:

``` r
starwars %>% 
    mutate(
        height_m = height / 100,
        bmi = mass / (height_m ^ 2)
    ) %>% 
    arrange(desc(bmi)) %>%
    select(name, mass, height, height_m, bmi)
```

    # A tibble: 87 × 5
       name                   mass height height_m   bmi
       <chr>                 <dbl>  <int>    <dbl> <dbl>
     1 Jabba Desilijic Tiure  1358    175     1.75 443. 
     2 Dud Bolt                 45     94     0.94  50.9
     3 Yoda                     17     66     0.66  39.0
     4 Owen Lars               120    178     1.78  37.9
     5 IG-88                   140    200     2     35  
     6 R2-D2                    32     96     0.96  34.7
     7 Grievous                159    216     2.16  34.1
     8 R5-D4                    32     97     0.97  34.0
     9 Jek Tono Porkins        110    180     1.8   34.0
    10 Darth Vader             136    202     2.02  33.3
    # ℹ 77 more rows
…
Воспользуемся функциями `filter`, `mutate`, `group_by` и `summarise`:

``` r
starwars %>%
    filter(!is.na(species), !is.na(name)) %>%
    mutate(name_length = nchar(name)) %>%
    group_by(species) %>%
    summarise(
        count = n(),
        avg_length = mean(name_length)
    )
```

    # A tibble: 37 × 3
       species   count avg_length
       <chr>     <int>      <dbl>
     1 Aleena        1      12   
     2 Besalisk      1      15   
     3 Cerean        1      12   
     4 Chagrian      1      10   
     5 Clawdite      1      10   
     6 Droid         6       4.83
     7 Dug           1       7   
     8 Ewok          1      21   
     9 Geonosian     1      17   
    10 Gungan        3      11.7 
    # ℹ 27 more rows
…
